Lab5/simulation/qsim/lab05_pb.msim.vcd
$comment
	File created using the following command:
		vcd file lab05_pb.msim.vcd -direction
$end
$date
	Thu Oct 17 20:57:07 2024
$end
$version
	ModelSim Version 2020.1
$end
$timescale
	1ps
$end

$scope module game_vlg_vec_tst $end
$var reg 1 ! clk $end
$var reg 1 " e $end
$var reg 1 # n $end
$var reg 1 $ reset $end
$var reg 1 % s $end
$var reg 1 & w $end
$var wire 1 ' d $end
$var wire 1 ( s0 $end
$var wire 1 ) s1 $end
$var wire 1 * s2 $end
$var wire 1 + s3 $end
$var wire 1 , s4 $end
$var wire 1 - s5 $end
$var wire 1 . s6 $end
$var wire 1 / sw $end
$var wire 1 0 v $end
$var wire 1 1 win $end

$scope module i1 $end
$var wire 1 2 gnd $end
$var wire 1 3 vcc $end
$var wire 1 4 unknown $end
$var tri1 1 5 devclrn $end
$var tri1 1 6 devpor $end
$var tri1 1 7 devoe $end
$var wire 1 8 s6~output_o $end
$var wire 1 9 win~output_o $end
$var wire 1 : s5~output_o $end
$var wire 1 ; d~output_o $end
$var wire 1 < s4~output_o $end
$var wire 1 = s3~output_o $end
$var wire 1 > sw~output_o $end
$var wire 1 ? s2~output_o $end
$var wire 1 @ s1~output_o $end
$var wire 1 A s0~output_o $end
$var wire 1 B v~output_o $end
$var wire 1 C clk~input_o $end
$var wire 1 D reset~input_o $end
$var wire 1 E w~input_o $end
$var wire 1 F e~input_o $end
$var wire 1 G r|Equal0~3_combout $end
$var wire 1 H r|Selector7~1_combout $end
$var wire 1 I r|Equal0~4_combout $end
$var wire 1 J r|Selector7~2_combout $end
$var wire 1 K r|Selector7~3_combout $end
$var wire 1 L s~input_o $end
$var wire 1 M r|Selector7~0_combout $end
$var wire 1 N r|Selector7~4_combout $end
$var wire 1 O n~input_o $end
$var wire 1 P r|Selector6~0_combout $end
$var wire 1 Q r|Selector6~1_combout $end
$var wire 1 R r|Selector6~1clkctrl_outclk $end
$var wire 1 S r|d0|q~q $end
$var wire 1 T r|Equal0~5_combout $end
$var wire 1 U r|Selector5~0_combout $end
$var wire 1 V r|d1|q~q $end
$var wire 1 W r|Selector1~0_combout $end
$var wire 1 X r|Selector1~1_combout $end
$var wire 1 Y r|d3|q~q $end
$var wire 1 Z r|Equal2~0_combout $end
$var wire 1 [ r|Selector6~2_combout $end
$var wire 1 \ r|comb~0_combout $end
$var wire 1 ] r|comb~1_combout $end
$var wire 1 ^ r|d4|q~q $end
$var wire 1 _ r|Equal1~0_combout $end
$var wire 1 ` r|Selector3~0_combout $end
$var wire 1 a r|Selector3~1_combout $end
$var wire 1 b r|d2|q~q $end
$var wire 1 c r|Selector8~1_combout $end
$var wire 1 d swo|nextState~0_combout $end
$var wire 1 e swo|nextState~1_combout $end
$var wire 1 f swo|d|q~q $end
$var wire 1 g r|Selector8~0_combout $end
$var wire 1 h r|Selector8~2_combout $end
$var wire 1 i r|Equal4~3_combout $end
$var wire 1 j r|Selector8~3_combout $end
$var wire 1 k r|d5|q~q $end
$var wire 1 l r|Equal4~2_combout $end
$var wire 1 m r|Selector10~2_combout $end
$var wire 1 n r|Selector10~3_combout $end
$var wire 1 o r|d6|q~q $end
$var wire 1 p r|Equal0~2_combout $end
$var wire 1 q r|Equal6~0_combout $end
$var wire 1 r r|Equal7~0_combout $end
$var wire 1 s r|Equal4~4_combout $end
$var wire 1 t r|Equal3~0_combout $end
$var wire 1 u r|Equal1~1_combout $end
$var wire 1 v r|nextState [6] $end
$var wire 1 w r|nextState [5] $end
$var wire 1 x r|nextState [4] $end
$var wire 1 y r|nextState [3] $end
$var wire 1 z r|nextState [2] $end
$var wire 1 { r|nextState [1] $end
$var wire 1 | r|nextState [0] $end
$upscope $end
$upscope $end
$enddefinitions $end
#0
$dumpvars
0!
0"
0#
0$
0%
0&
0'
0(
0)
0*
0+
0,
0-
0.
0/
00
01
02
13
x4
15
16
17
08
09
0:
0;
0<
0=
0>
0?
0@
0A
0B
0C
0D
0E
0F
1G
0H
1I
1J
1K
0L
0M
1N
0O
0P
1Q
1R
0S
0T
0U
0V
0W
0X
0Y
0Z
0[
1\
0]
0^
1_
0`
0a
0b
0c
0d
0e
0f
0g
0h
1i
0j
0k
1l
1m
1n
0o
1p
0q
0r
0s
0t
0u
1|
0{
0z
0y
0x
0w
0v
$end
#5000
1!
1C
1S
0l
0i
0_
0K
1T
1A
1(
#10000
1"
0!
1F
0C
1U
0J
0N
1{
0|
#15000
1!
1C
1V
0S
1M
0I
1_
1J
0T
0A
1N
0J
0U
0(
1u
1@
1)
1|
0{
#20000
1%
0"
0!
1L
0F
0C
1`
0M
1a
0N
1z
0|
#25000
1!
1C
1b
0V
0p
1c
0a
1H
0G
1l
1i
0`
1K
1I
0u
1Z
1?
0@
1h
1[
0Q
0)
1*
0R
0z
1j
0\
#30000
1"
0!
1F
0C
0c
1P
0h
1Q
1R
0j
1]
1w
1x
0w
#35000
1!
1C
0b
1^
1p
0H
1G
0m
0_
0K
0I
1s
0Z
0?
1<
0n
0[
1,
0*
0]
1\
1v
0x
#40000
0%
0"
0!
0L
0F
0C
0P
#45000
1!
1C
1o
0^
0i
1H
0G
1K
1I
1q
0s
0<
18
1;
1'
1.
0,
#50000
0!
0C
#55000
1!
1C
#60000
0!
0C
#65000
1!
1C
#70000
0!
0C
#75000
1!
1C
#80000
0!
0C
#85000
1!
1C
#90000
1$
0!
1D
0C
1m
1M
1n
1N
0v
1|
#95000
1!
1C
0o
1S
0H
1G
0l
0K
1J
0q
08
0;
0'
0.
1T
1A
1(
#100000
0$
0!
0D
0C
0M
#105000
1!
1C
#110000
0!
0C
#115000
1!
1C
#120000
0!
0C
#125000
1!
1C
#130000
0!
0C
#135000
1!
1C
#140000
0!
0C
#145000
1!
1C
#150000
0!
0C
#155000
1!
1C
#160000
0!
0C
#165000
1!
1C
#170000
0!
0C
#175000
1!
1C
#180000
0!
0C
#185000
1!
1C
#190000
0!
0C
#195000
1!
1C
#200000
0!
0C
#205000
1!
1C
#210000
0!
0C
#215000
1!
1C
#220000
0!
0C
#225000
1!
1C
#230000
0!
0C
#235000
1!
1C
#240000
0!
0C
#245000
1!
1C
#250000
0!
0C
#255000
1!
1C
#260000
0!
0C
#265000
1!
1C
#270000
0!
0C
#275000
1!
1C
#280000
0!
0C
#285000
1!
1C
#290000
0!
0C
#295000
1!
1C
#300000
0!
0C
#305000
1!
1C
#310000
0!
0C
#315000
1!
1C
#320000
0!
0C
#325000
1!
1C
#330000
0!
0C
#335000
1!
1C
#340000
0!
0C
#345000
1!
1C
#350000
0!
0C
#355000
1!
1C
#360000
0!
0C
#365000
1!
1C
#370000
0!
0C
#375000
1!
1C
#380000
0!
0C
#385000
1!
1C
#390000
0!
0C
#395000
1!
1C
#400000
0!
0C
#405000
1!
1C
#410000
0!
0C
#415000
1!
1C
#420000
0!
0C
#425000
1!
1C
#430000
0!
0C
#435000
1!
1C
#440000
0!
0C
#445000
1!
1C
#450000
0!
0C
#455000
1!
1C
#460000
0!
0C
#465000
1!
1C
#470000
0!
0C
#475000
1!
1C
#480000
0!
0C
#485000
1!
1C
#490000
0!
0C
#495000
1!
1C
#500000
0!
0C
#505000
1!
1C
#510000
0!
0C
#515000
1!
1C
#520000
0!
0C
#525000
1!
1C
#530000
0!
0C
#535000
1!
1C
#540000
0!
0C
#545000
1!
1C
#550000
0!
0C
#555000
1!
1C
#560000
0!
0C
#565000
1!
1C
#570000
0!
0C
#575000
1!
1C
#580000
0!
0C
#585000
1!
1C
#590000
0!
0C
#595000
1!
1C
#600000
0!
0C
#605000
1!
1C
#610000
0!
0C
#615000
1!
1C
#620000
0!
0C
#625000
1!
1C
#630000
0!
0C
#635000
1!
1C
#640000
0!
0C
#645000
1!
1C
#650000
0!
0C
#655000
1!
1C
#660000
0!
0C
#665000
1!
1C
#670000
0!
0C
#675000
1!
1C
#680000
0!
0C
#685000
1!
1C
#690000
0!
0C
#695000
1!
1C
#700000
0!
0C
#705000
1!
1C
#710000
0!
0C
#715000
1!
1C
#720000
0!
0C
#725000
1!
1C
#730000
0!
0C
#735000
1!
1C
#740000
0!
0C
#745000
1!
1C
#750000
0!
0C
#755000
1!
1C
#760000
0!
0C
#765000
1!
1C
#770000
0!
0C
#775000
1!
1C
#780000
0!
0C
#785000
1!
1C
#790000
0!
0C
#795000
1!
1C
#800000
0!
0C
#805000
1!
1C
#810000
0!
0C
#815000
1!
1C
#820000
0!
0C
#825000
1!
1C
#830000
0!
0C
#835000
1!
1C
#840000
0!
0C
#845000
1!
1C
#850000
0!
0C
#855000
1!
1C
#860000
0!
0C
#865000
1!
1C
#870000
0!
0C
#875000
1!
1C
#880000
0!
0C
#885000
1!
1C
#890000
0!
0C
#895000
1!
1C
#900000
0!
0C
#905000
1!
1C
#910000
0!
0C
#915000
1!
1C
#920000
0!
0C
#925000
1!
1C
#930000
0!
0C
#935000
1!
1C
#940000
0!
0C
#945000
1!
1C
#950000
0!
0C
#955000
1!
1C
#960000
0!
0C
#965000
1!
1C
#970000
0!
0C
#975000
1!
1C
#980000
0!
0C
#985000
1!
1C
#990000
0!
0C
#995000
1!
1C
