Lab3/simulation/qsim/lab3.msim.vcd
$comment
	File created using the following command:
		vcd file lab3.msim.vcd -direction
$end
$date
	Wed Oct 02 03:23:48 2024
$end
$version
	ModelSim Version 2020.1
$end
$timescale
	1ps
$end

$scope module test_vhd_vec_tst $end
$var wire 1 ! a $end
$var wire 1 " b $end
$var wire 1 # c $end
$var wire 1 $ d $end
$var wire 1 % d0 $end
$var wire 1 & d1 $end
$var wire 1 ' d2 $end
$var wire 1 ( d3 $end
$var wire 1 ) e $end
$var wire 1 * f $end
$var wire 1 + g $end

$scope module i1 $end
$var wire 1 , gnd $end
$var wire 1 - vcc $end
$var wire 1 . unknown $end
$var wire 1 / devoe $end
$var wire 1 0 devclrn $end
$var wire 1 1 devpor $end
$var wire 1 2 ww_devoe $end
$var wire 1 3 ww_devclrn $end
$var wire 1 4 ww_devpor $end
$var wire 1 5 ww_d3 $end
$var wire 1 6 ww_d2 $end
$var wire 1 7 ww_d1 $end
$var wire 1 8 ww_d0 $end
$var wire 1 9 ww_g $end
$var wire 1 : ww_f $end
$var wire 1 ; ww_e $end
$var wire 1 < ww_d $end
$var wire 1 = ww_c $end
$var wire 1 > ww_b $end
$var wire 1 ? ww_a $end
$var wire 1 @ \g~output_o\ $end
$var wire 1 A \f~output_o\ $end
$var wire 1 B \e~output_o\ $end
$var wire 1 C \d~output_o\ $end
$var wire 1 D \c~output_o\ $end
$var wire 1 E \b~output_o\ $end
$var wire 1 F \a~output_o\ $end
$var wire 1 G \d2~input_o\ $end
$var wire 1 H \d3~input_o\ $end
$var wire 1 I \d1~input_o\ $end
$var wire 1 J \d0~input_o\ $end
$var wire 1 K \g_signal~0_combout\ $end
$var wire 1 L \f_signal~0_combout\ $end
$var wire 1 M \e_signal~0_combout\ $end
$var wire 1 N \d_signal~0_combout\ $end
$var wire 1 O \c_signal~0_combout\ $end
$var wire 1 P \b_signal~0_combout\ $end
$var wire 1 Q \a_signal~0_combout\ $end
$upscope $end
$upscope $end
$enddefinitions $end
#0
$dumpvars
0!
0"
0#
0$
0%
0&
0'
0(
0)
0*
1+
0,
1-
x.
1/
10
11
12
13
14
05
06
07
08
19
0:
0;
0<
0=
0>
0?
1@
0A
0B
0C
0D
0E
0F
0G
0H
0I
0J
1K
0L
0M
0N
0O
0P
0Q
$end
#10000
1%
18
1J
1L
1M
1N
1Q
1F
1C
1B
1A
1?
1<
1;
1:
1!
1$
1)
1*
#20000
0%
1&
08
17
1I
0J
0K
0M
0N
1O
0Q
0F
1D
0C
0B
0@
0?
1=
0<
0;
09
0!
1#
0$
0)
0+
#30000
1%
18
1J
1M
0O
0D
1B
0=
1;
0#
1)
#40000
0%
0&
1'
08
07
16
1G
0I
0J
0L
1N
1Q
1F
1C
0A
1?
1<
0:
1!
1$
0*
#50000
1%
18
1J
0N
1P
0Q
0F
1E
0C
0?
1>
0<
0!
1"
0$
#60000
0%
1&
08
17
1I
0J
0M
0B
0;
0)
#70000
1%
18
1J
1K
1L
1M
1N
0P
0E
1C
1B
1A
1@
0>
1<
1;
1:
19
0"
1$
1)
1*
1+
#80000
0%
0&
0'
1(
08
07
06
15
1H
0G
0I
0J
0K
0L
0M
0N
0C
0B
0A
0@
0<
0;
0:
09
0$
0)
0*
0+
#90000
1%
18
1J
1M
1N
1C
1B
1<
1;
1$
1)
#100000
0%
1&
08
17
1I
0J
0M
0B
0;
0)
#110000
1%
18
1J
0N
1P
1Q
1F
1E
0C
1?
1>
0<
1!
1"
0$
#120000
0%
0&
1'
08
07
16
1G
0I
0J
1L
1O
1D
1A
1=
1:
1#
1*
#130000
1%
18
1J
0O
0P
0E
0D
0>
0=
0"
0#
#140000
0%
1&
08
17
1I
0J
0L
1O
1P
0Q
0F
1E
1D
0A
0?
1>
1=
0:
0!
1"
1#
0*
#150000
1%
18
1J
1N
1C
1<
1$
#160000
0%
0&
0'
0(
08
07
06
05
0H
0G
0I
0J
1K
0N
0O
0P
0E
0D
0C
1@
0>
0=
0<
19
0"
0#
0$
1+
